<svg contentScriptType="text/ecmascript" width="1300.0px" xmlns:xlink="http://www.w3.org/1999/xlink" baseProfile="full"
    zoomAndPan="magnify" contentStyleType="text/css" height="600.0px" preserveAspectRatio="xMidYMid meet" xmlns="http://www.w3.org/2000/svg"
    version="1.0" class="svg-intro">
    <circle fill-opacity="0.02" fill="#ffffff" r="200" class="circle-track" cx="655.0009" id="svg_2" cy="229.0" stroke="#ddd"
        stroke-opacity="0.2" stroke-width="8"/>
    <circle fill-opacity="0" transform="rotate(-90 0 0)" fill="#ffffff" r="200" class="circle2" cx="655.0009" cy="229.0"
        id="svg_5" stroke="#be202e" stroke-width="8"/>
    <circle fill-opacity="0" transform="rotate(-90 0 0)" fill="#ffffff" r="200" class="circle1" cx="655.0009" cy="229.0"
        id="svg_6" stroke="#FFFFFF" stroke-width="10"/>
    <circle stroke-linecap="null" fill="#be202e" stroke-linejoin="null" class="dot1" stroke-dasharray="null" r="20" cx="830"
        id="svg_7" cy="145.0" stroke="#be202e" stroke-width="0"/>
    <circle stroke-linecap="null" fill="#be202e" stroke-linejoin="null" class="dot2" stroke-dasharray="null" r="20" cx="810"
        id="svg_9" cy="360" stroke="#be202e" stroke-width="0"/>
    <circle stroke-linecap="null" fill="#be202e" stroke-linejoin="null" class="dot3" stroke-dasharray="null" r="20" cx="649.6009"
        id="svg_12" cy="430" stroke="#be202e" stroke-width="0"/>
    <circle stroke-linecap="null" fill="#be202e" stroke-linejoin="null" class="dot4" stroke-dasharray="null" r="20" cx="490"
        id="svg_10" cy="360" stroke="#be202e" stroke-width="0"/>
    <circle stroke-linecap="null" fill="#be202e" stroke-linejoin="null" class="dot5" stroke-dasharray="null" r="20" cx="470"
        id="svg_11" cy="149.0" stroke="#be202e" stroke-width="0"/>
    <a href="/360ne" fill="#000000" class="text-white svg-links">
        <text fill="#ffffff" x="930.0" y="78.0" class="link-title"> <tspan xml:space="preserve">PLANIFICACIÓN FINANCIERA</tspan> <tspan
                x="940.0009" xml:space="preserve" dy="12.0"/> </text>
    </a>
    <polyline fill="none" points="795.0,93.0 884.0,93.0 954.0,129.0" transform="matrix(-1.0 0.0 0.0 1.0 1811.0 0.0)"
        stroke="#cccccc"/>
    <a href="/360ne" fill="#000000" class="text-white svg-links">
        <text fill="#ffffff" x="908.0" y="448.0" class="link-title"> <tspan xml:space="preserve">PLANES DE JUBILACIÓN</tspan> <tspan
                x="892.0009" dy="12.0" xml:space="preserve"/> </text>
    </a>
    <polyline fill="none" points="495.0,226.0 584.0,226.0 654.0,262.0" transform="matrix(-1.0 0.0 -0.0 -1.0 1491.0 638.0)"
        stroke="#cccccc"/>
    <a href="/360ne" fill="#000000" class="text-white svg-links">
        <text fill="#ffffff" x="50.0" y="90.0" class="link-title"> <tspan xml:space="preserve">CONSULTORÍA Y ASESORÍA</tspan> <tspan
                x="321.00092" xml:space="preserve" dy="12.0"/> </text>
    </a>
    <polyline fill="none" points="278.0,105.0 367.0,105.0 437.0,141.0" stroke="#cccccc"/>
    <a href="/360ne" fill="#000000" class="text-white svg-links">
        <text fill="#ffffff" x="70" y="450.0" class="link-title"> <tspan xml:space="preserve">GESTIÓN DE INVERSIONES</tspan> <tspan
                x="343.00092" xml:space="preserve" dy="12.0"/> </text>
    </a>
    <polyline fill="none" points="301.0,225.0 390.0,225.0 460.0,261.0" transform="matrix(1.0 0.0 0.0 -1.0 0.0 638.0)"
        stroke="#cccccc"/>
    <a href="/360ne" fill="#000000" class="text-white svg-links">
        <text fill="#ffffff" x="615.0" y="490.0" class="link-title"> <tspan xml:space="preserve">MORE</tspan> <tspan x="324.00092"
                xml:space="preserve" dy="12.0"/> </text>
    </a>
    <image x="457.0" y="32.0" width="400" xlink:href="./360-transparent.png"
        height="400" preserveAspectRatio="none"/>
</svg>